%YAML 1.1
%TAG !u! tag:unity3d.com,2011:
--- !u!74 &7400000
AnimationClip:
  m_ObjectHideFlags: 0
  m_CorrespondingSourceObject: {fileID: 0}
  m_PrefabInstance: {fileID: 0}
  m_PrefabAsset: {fileID: 0}
  m_Name: Stage1ToStage2
  serializedVersion: 6
  m_Legacy: 0
  m_Compressed: 0
  m_UseHighQualityCurve: 1
  m_RotationCurves: []
  m_CompressedRotationCurves: []
  m_EulerCurves: []
  m_PositionCurves: []
  m_ScaleCurves: []
  m_FloatCurves: []
  m_PPtrCurves:
  - curve:
    - time: 0
      value: {fileID: 21300000, guid: 8cba6fdd547b74e599c5c718c20d0d64, type: 3}
    - time: 0.1
      value: {fileID: 21300000, guid: d0ac9e82f0e3742e68896c0fb95927f2, type: 3}
    - time: 0.2
      value: {fileID: 21300000, guid: db8134ed4af4a4676a386dcf366a1644, type: 3}
    - time: 0.3
      value: {fileID: 21300000, guid: a8066a24283e8450d97f1e7fb83f078d, type: 3}
    - time: 0.4
      value: {fileID: 21300000, guid: ac436a71242684c8195ecb0c43db4ab9, type: 3}
    - time: 0.5
      value: {fileID: 21300000, guid: 4a822ecb68f6a47d482ad5b8377eb4e1, type: 3}
    - time: 0.6
      value: {fileID: 21300000, guid: 7028055094ff64b6ba876758bd498688, type: 3}
    - time: 0.7
      value: {fileID: 21300000, guid: e08fe4bae5d45401f986dce13835705c, type: 3}
    - time: 0.8
      value: {fileID: 21300000, guid: 4bc9519f2f6ab4a33952cfb81bc4fad5, type: 3}
    - time: 0.9
      value: {fileID: 21300000, guid: e469e9947140848db9e17a293bdd94d3, type: 3}
    attribute: m_Sprite
    path: 
    classID: 212
    script: {fileID: 0}
  m_SampleRate: 10
  m_WrapMode: 0
  m_Bounds:
    m_Center: {x: 0, y: 0, z: 0}
    m_Extent: {x: 0, y: 0, z: 0}
  m_ClipBindingConstant:
    genericBindings:
    - serializedVersion: 2
      path: 0
      attribute: 0
      script: {fileID: 0}
      typeID: 212
      customType: 23
      isPPtrCurve: 1
    pptrCurveMapping:
    - {fileID: 21300000, guid: 8cba6fdd547b74e599c5c718c20d0d64, type: 3}
    - {fileID: 21300000, guid: d0ac9e82f0e3742e68896c0fb95927f2, type: 3}
    - {fileID: 21300000, guid: db8134ed4af4a4676a386dcf366a1644, type: 3}
    - {fileID: 21300000, guid: a8066a24283e8450d97f1e7fb83f078d, type: 3}
    - {fileID: 21300000, guid: ac436a71242684c8195ecb0c43db4ab9, type: 3}
    - {fileID: 21300000, guid: 4a822ecb68f6a47d482ad5b8377eb4e1, type: 3}
    - {fileID: 21300000, guid: 7028055094ff64b6ba876758bd498688, type: 3}
    - {fileID: 21300000, guid: e08fe4bae5d45401f986dce13835705c, type: 3}
    - {fileID: 21300000, guid: 4bc9519f2f6ab4a33952cfb81bc4fad5, type: 3}
    - {fileID: 21300000, guid: e469e9947140848db9e17a293bdd94d3, type: 3}
  m_AnimationClipSettings:
    serializedVersion: 2
    m_AdditiveReferencePoseClip: {fileID: 0}
    m_AdditiveReferencePoseTime: 0
    m_StartTime: 0
    m_StopTime: 1
    m_OrientationOffsetY: 0
    m_Level: 0
    m_CycleOffset: 0
    m_HasAdditiveReferencePose: 0
    m_LoopTime: 0
    m_LoopBlend: 0
    m_LoopBlendOrientation: 0
    m_LoopBlendPositionY: 0
    m_LoopBlendPositionXZ: 0
    m_KeepOriginalOrientation: 0
    m_KeepOriginalPositionY: 1
    m_KeepOriginalPositionXZ: 0
    m_HeightFromFeet: 0
    m_Mirror: 0
  m_EditorCurves: []
  m_EulerEditorCurves: []
  m_HasGenericRootTransform: 0
  m_HasMotionFloatCurves: 0
  m_Events: []
