%YAML 1.1
%TAG !u! tag:unity3d.com,2011:
--- !u!74 &7400000
AnimationClip:
  m_ObjectHideFlags: 0
  m_CorrespondingSourceObject: {fileID: 0}
  m_PrefabInstance: {fileID: 0}
  m_PrefabAsset: {fileID: 0}
  m_Name: Stage1ToStage2
  serializedVersion: 6
  m_Legacy: 0
  m_Compressed: 0
  m_UseHighQualityCurve: 1
  m_RotationCurves: []
  m_CompressedRotationCurves: []
  m_EulerCurves: []
  m_PositionCurves: []
  m_ScaleCurves: []
  m_FloatCurves: []
  m_PPtrCurves:
  - curve:
    - time: 0
      value: {fileID: 21300000, guid: 8cba6fdd547b74e599c5c718c20d0d64, type: 3}
    - time: 0.1
      value: {fileID: 21300000, guid: d0ac9e82f0e3742e68896c0fb95927f2, type: 3}
    - time: 0.2
      value: {fileID: 21300000, guid: 10c01d5902350824398126c354b9b591, type: 3}
    - time: 0.3
      value: {fileID: 21300000, guid: 268dd9a4e5a056345894ac9f905707ce, type: 3}
    - time: 0.4
      value: {fileID: 21300000, guid: 4540f41bc4fff3d45a5e67e34433029c, type: 3}
    - time: 0.5
      value: {fileID: 21300000, guid: 45c3544935af77a4b96cf5384b30b5bd, type: 3}
    - time: 0.6
      value: {fileID: 21300000, guid: c2a359dd4f27ce848a2dfefed9c95314, type: 3}
    - time: 0.7
      value: {fileID: 21300000, guid: 2afe296e60bd8174bbaf41efdaf5f0cf, type: 3}
    - time: 0.8
      value: {fileID: 21300000, guid: 4972624b5f33eed44b57f63d67cb8bd2, type: 3}
    - time: 0.9
      value: {fileID: 21300000, guid: 6364c3db664b16841ac6a2f590a7c9f8, type: 3}
    attribute: m_Sprite
    path: 
    classID: 212
    script: {fileID: 0}
  m_SampleRate: 10
  m_WrapMode: 0
  m_Bounds:
    m_Center: {x: 0, y: 0, z: 0}
    m_Extent: {x: 0, y: 0, z: 0}
  m_ClipBindingConstant:
    genericBindings:
    - serializedVersion: 2
      path: 0
      attribute: 0
      script: {fileID: 0}
      typeID: 212
      customType: 23
      isPPtrCurve: 1
    pptrCurveMapping:
    - {fileID: 21300000, guid: 8cba6fdd547b74e599c5c718c20d0d64, type: 3}
    - {fileID: 21300000, guid: d0ac9e82f0e3742e68896c0fb95927f2, type: 3}
    - {fileID: 21300000, guid: 10c01d5902350824398126c354b9b591, type: 3}
    - {fileID: 21300000, guid: 268dd9a4e5a056345894ac9f905707ce, type: 3}
    - {fileID: 21300000, guid: 4540f41bc4fff3d45a5e67e34433029c, type: 3}
    - {fileID: 21300000, guid: 45c3544935af77a4b96cf5384b30b5bd, type: 3}
    - {fileID: 21300000, guid: c2a359dd4f27ce848a2dfefed9c95314, type: 3}
    - {fileID: 21300000, guid: 2afe296e60bd8174bbaf41efdaf5f0cf, type: 3}
    - {fileID: 21300000, guid: 4972624b5f33eed44b57f63d67cb8bd2, type: 3}
    - {fileID: 21300000, guid: 6364c3db664b16841ac6a2f590a7c9f8, type: 3}
  m_AnimationClipSettings:
    serializedVersion: 2
    m_AdditiveReferencePoseClip: {fileID: 0}
    m_AdditiveReferencePoseTime: 0
    m_StartTime: 0
    m_StopTime: 1
    m_OrientationOffsetY: 0
    m_Level: 0
    m_CycleOffset: 0
    m_HasAdditiveReferencePose: 0
    m_LoopTime: 0
    m_LoopBlend: 0
    m_LoopBlendOrientation: 0
    m_LoopBlendPositionY: 0
    m_LoopBlendPositionXZ: 0
    m_KeepOriginalOrientation: 0
    m_KeepOriginalPositionY: 1
    m_KeepOriginalPositionXZ: 0
    m_HeightFromFeet: 0
    m_Mirror: 0
  m_EditorCurves: []
  m_EulerEditorCurves: []
  m_HasGenericRootTransform: 0
  m_HasMotionFloatCurves: 0
  m_Events: []
